…
```r
count_recall_by_years(start_year = 2000, end_year = 2000)
#> # A tibble: 1 x 1
#>   `Result Count`
#>            <int>
#> 1           2422
```

We could then query the database for the summary information associated with these recalls.

```r
recall_summary_2000 <- recall_by_years(start_year = 2000, end_year = 2000, limit = 3000)
recall_summary_2000
#> # A tibble: 2,422 x 6
#>    `Recall number` `Manufacturer Name`       `Model name` `Make name`    Year `Recall date`
#>    <chr>           <chr>                     <chr>        <chr>         <int> <date>       
#>  1 1993076         MERCEDES-BENZ             300          MERCEDES-BENZ  2000 1993-05-31   
#>  2 1999056         FIAT CHRYSLER AUTOMOBILES NEON         CHRYSLER       2000 1999-04-14   
#>  3 1999108         FIAT CHRYSLER AUTOMOBILES NEON         CHRYSLER       2000 1999-06-07   
#>  4 1999111         FLEETWOOD                 TIOGA        FLEETWOOD      2000 1999-06-08   
#>  5 1999137         POLARIS                   SNOWMOBILE   POLARIS        2000 1999-07-26   
#>  6 1999138         MAZDA                     MPV          MAZDA          2000 1999-07-27   
#>  7 1999147         MAZDA                     MPV          MAZDA          2000 1999-07-30   
#>  8 1999151         GENERAL MOTORS            S10          CHEVROLET      2000 1999-08-16   
#>  9 1999151         GENERAL MOTORS            SONOMA       GMC            2000 1999-08-16   
#> 10 1999155         GENERAL MOTORS            SUNFIRE      PONTIAC        2000 1999-08-19   
#> # ... with 2,412 more rows
```
…
<img src="intro-plot1-1.png" title="plot of chunk plot1" alt="plot of chunk plot1" width="100%" style="display: block; margin: auto;" />

We could also look at how many recalls two manufacturers have had compared with each other over the over the last 10 years (2011 to 2020).

We would start by querying the API for entries with the two manufacturers. This time, we'll just set the limit to be reasonably high instead of checking the count available in the database first.

```r
manu_comparison_list <- c("Ford", "Toyota")
recall_comparison <- recall_by_make(manu_comparison_list, start_year = 2011, end_year = 2020, limit = 10000)
recall_comparison
#> # A tibble: 1,266 x 6
#>    `Recall number` `Manufacturer Name` `Model name`     `Make name`  Year `Recall date`
#>    <chr>           <chr>               <chr>            <chr>       <int> <date>       
#>  1 2009290         TOYOTA              CAMRY            TOYOTA       2011 2009-10-07   
#>  2 2010366         FORD                EDGE             FORD         2011 2010-10-25   
#>  3 2010439         TOYOTA              SIENNA           TOYOTA       2011 2010-12-13   
#>  4 2010463         FORD                EDGE             FORD         2011 2010-12-23   
#>  5 2010463         FORD                F-150            FORD         2011 2010-12-23   
#>  6 2010463         FORD                F-250 SUPER DUTY FORD         2011 2010-12-23   
#>  7 2010463         FORD                F-350 SUPER DUTY FORD         2011 2010-12-23   
#>  8 2010463         FORD                F-450 SUPER DUTY FORD         2011 2010-12-23   
#>  9 2010463         FORD                F-550 SUPER DUTY FORD         2011 2010-12-23   
#> 10 2011046         FORD                EXPLORER         FORD         2011 2011-01-31   
#> # ... with 1,256 more rows
```
…
